\contentsline {section}{\numberline {1}Background}{3}
\contentsline {subsection}{\numberline {1.1}Acquired Brain Injury}{3}
\contentsline {subsection}{\numberline {1.2}Neurorehabilitation}{3}
\contentsline {subsection}{\numberline {1.3}Application Based Treatment}{3}
\contentsline {section}{\numberline {2}Application}{3}
\contentsline {subsection}{\numberline {2.1}Front End}{3}
\contentsline {subsection}{\numberline {2.2}Back End}{3}
\contentsline {section}{\numberline {3}Business Model}{3}
\contentsline {subsection}{\numberline {3.1}Risks and Challenges}{4}
\contentsline {subsection}{\numberline {3.2}Support}{4}
\contentsline {section}{\numberline {4}Conclusion}{5}
