\relax 
\@writefile{toc}{\contentsline {section}{\numberline {1}Background}{3}}
\@writefile{toc}{\contentsline {subsection}{\numberline {1.1}Acquired Brain Injury}{3}}
\@writefile{toc}{\contentsline {subsection}{\numberline {1.2}Neurorehabilitation}{3}}
\@writefile{toc}{\contentsline {subsection}{\numberline {1.3}Application Based Treatment}{3}}
\@writefile{toc}{\contentsline {section}{\numberline {2}Application}{3}}
\@writefile{toc}{\contentsline {subsection}{\numberline {2.1}Front End}{3}}
\@writefile{toc}{\contentsline {subsection}{\numberline {2.2}Back End}{3}}
\@writefile{toc}{\contentsline {section}{\numberline {3}Business Model}{3}}
\@writefile{toc}{\contentsline {subsection}{\numberline {3.1}Risks and Challenges}{4}}
\@writefile{toc}{\contentsline {subsection}{\numberline {3.2}Support}{4}}
\bibcite{Figueredo:2009dg}{Figueredo and Wolf, 2009}
\@writefile{toc}{\contentsline {section}{\numberline {4}Conclusion}{5}}
